................
----------------------------------------------------------------------
Ran 16 tests in 10.604s

OK
Name             Stmts   Miss Branch BrPart  Cover   Missing
------------------------------------------------------------
Collatz.py          41      0     14      0   100%
TestCollatz.py      74      0      0      0   100%
------------------------------------------------------------
TOTAL              115      0     14      0   100%
