.......................
----------------------------------------------------------------------
Ran 23 tests in 426.962s

OK
Name             Stmts   Miss Branch BrPart  Cover   Missing
------------------------------------------------------------
Collatz.py          38      0     14      1    98%   31->33
TestCollatz.py     102      4      0      0    96%   49-52
------------------------------------------------------------
TOTAL              140      4     14      1    97%
