1 10 20
100 200 125
201 210 89
900 1000 174
1 1000 179
1 10000 262
1 100000 351
10 1 20
100 99 26
100 1 119
2 1 2
1000 1 179
2 1 2
3 1 8
5 1 8
1 999 179
8 7 17
10000 1 262
123 189 125
992 1000 112
1000 2000 182
80 1000 179
10000 54 262
100 29 119
1 190 125
3 400 144
5 500 144
2 40 112
90 1000 179
10 10000 262
40 80 116
1 5 8
1 9 20
6 4000 238
7 80 116
6 509 144
2 30 112
90 7 116
4 40 112
1 2009 182
1 2020 182
8 9090 262
5 5000 238
4 324 131
908 32 179
567 23 144
78 345 144
78 3234 217
67 89 116
45 799 171
56 780 171
23 2098 182
23 4894 238
23 807 171
80 35 116
65 2098 182
29 470 144
45 1976 182
47 20987 279
90 462 144
90 88 31
90 123 119
123 124 109
19 46 112
58 1987 182
5 10 20
1 20 21
5 30 112
7 1000 179
5 109 119
5 108 119
4 409 144
5 908 179
2 203 125
89 387 144
78 297 128
987 186 179
67 457 144
87 276 128
87 4567 238
27 2683 209
5678 5670 205
78 269 128
897 2763 209
87 462 144
89 4652 238
888 333 179
999 111 179
99 500 144
56 123 119
9876 23 262
874 1 179
572 89 144
788 388 171
123 124 109
897 563 179
67 49 113
98 765 171
84 265 128
76 456 144
90 312 128
76 499 144
90 109 119
901 890 117
98 909 179
83 108 119
676 567 145
909 109 179
190 1920 182
18 2018 182
