...........................
----------------------------------------------------------------------
Ran 27 tests in 0.556s

OK
Name             Stmts   Miss Branch BrPart  Cover   Missing
------------------------------------------------------------
Collatz.py          72      0     34      0   100%
TestCollatz.py     115      0      0      0   100%
------------------------------------------------------------
TOTAL              187      0     34      0   100%
